module gitlab.com/fastogt/gofastogt

// x/sys
go 1.23.0

require (
	github.com/stretchr/testify v1.10.0
	golang.org/x/sys v0.31.0
)

require (
	github.com/davecgh/go-spew v1.1.1 // indirect
	github.com/pmezard/go-difflib v1.0.0 // indirect
	gopkg.in/yaml.v3 v3.0.1 // indirect
)
